…
``` r
## Bar plot placeholder

# Subset columns to include only weekday_is_*
weekdayData <- channelData %>% select(starts_with("weekday_is"))

# Calculate sum of articles published in each week day
articlesPublished <- lapply(weekdayData, function(c) sum(c=="1"))

weekdayData
```

    ## # A tibble: 2,099 x 7
    ##    weekday_is_monday weekday_is_tuesday weekday_is_wednesday weekday_is_thursday
    ##                <dbl>              <dbl>                <dbl>               <dbl>
    ##  1                 1                  0                    0                   0
    ##  2                 1                  0                    0                   0
    ##  3                 1                  0                    0                   0
    ##  4                 1                  0                    0                   0
    ##  5                 1                  0                    0                   0
    ##  6                 1                  0                    0                   0
    ##  7                 1                  0                    0                   0
    ##  8                 1                  0                    0                   0
    ##  9                 0                  1                    0                   0
    ## 10                 0                  0                    1                   0
    ## # ... with 2,089 more rows, and 3 more variables: weekday_is_friday <dbl>,
    ## #   weekday_is_saturday <dbl>, weekday_is_sunday <dbl>
…
